ex_2b/main.vcd
$date
     Mar 30, 2024       23:18:50
$end

$version
 SystemC 2.3.3-Accellera --- Mar 25 2024 22:40:51
$end

$timescale
     1 ps
$end

$scope module SystemC $end
$var wire    1  aaaaa  clk       $end
$var wire    1  aaaab  valid       $end
$var wire    1  aaaac  rd_en       $end
$var wire    1  aaaad  wr_en       $end
$var wire    8  aaaae  consumer_d_in [7:0]  $end
$upscope $end
$enddefinitions  $end

$comment
All initial values are dumped below at time 0 sec = 0 timescale units.
$end

$dumpvars
1aaaaa
0aaaab
0aaaac
0aaaad
b11111111 aaaae
$end

#50000
0aaaaa

#100000
1aaaaa

#150000
0aaaaa

#200000
1aaaaa

#250000
0aaaaa

#300000
1aaaaa
1aaaad

#350000
0aaaaa

#400000
1aaaaa
1aaaab
0aaaad
b0 aaaae

#450000
0aaaaa

#500000
1aaaaa
1aaaac

#550000
0aaaaa

#600000
1aaaaa
0aaaab
0aaaac
1aaaad

#650000
0aaaaa

#700000
1aaaaa
1aaaab
0aaaad
b1 aaaae

#750000
0aaaaa

#800000
1aaaaa
1aaaad

#850000
0aaaaa

#900000
1aaaaa
0aaaad

#950000
0aaaaa

#1000000
1aaaaa

#1050000
0aaaaa

#1100000
1aaaaa
1aaaac
1aaaad

#1150000
0aaaaa

#1200000
1aaaaa
0aaaac
0aaaad
b10 aaaae

#1250000
0aaaaa

#1300000
1aaaaa

#1350000
0aaaaa

#1400000
1aaaaa
1aaaad

#1450000
0aaaaa

#1500000
1aaaaa

#1550000
0aaaaa

#1600000
1aaaaa
1aaaac

#1650000
0aaaaa

#1700000
1aaaaa
0aaaac
b11 aaaae

#1750000
0aaaaa

#1800000
1aaaaa

#1850000
0aaaaa

#1900000
1aaaaa

#1950000
0aaaaa

#2000000
1aaaaa
1aaaac

#2050000
0aaaaa

#2100000
1aaaaa
b100 aaaae

#2150000
0aaaaa

#2200000
1aaaaa
0aaaac
b101 aaaae

#2250000
0aaaaa

#2300000
1aaaaa
1aaaac

#2350000
0aaaaa

#2400000
1aaaaa
0aaaad
b110 aaaae

#2450000
0aaaaa

#2500000
1aaaaa
1aaaad
b111 aaaae

#2550000
0aaaaa

#2600000
1aaaaa
0aaaad
b1000 aaaae

#2650000
0aaaaa

#2700000
1aaaaa
0aaaab

#2750000
0aaaaa

#2800000
1aaaaa

#2850000
0aaaaa

#2900000
1aaaaa

#2950000
0aaaaa

#3000000
1aaaaa

#3050000
0aaaaa

#3100000
1aaaaa

#3150000
0aaaaa

#3200000
1aaaaa

#3250000
0aaaaa

#3300000
1aaaaa
0aaaac

#3350000
0aaaaa

#3400000
1aaaaa

#3450000
0aaaaa

#3500000
1aaaaa
1aaaac

#3550000
0aaaaa

#3600000
1aaaaa
0aaaac

#3650000
0aaaaa

#3700000
1aaaaa

#3750000
0aaaaa

#3800000
1aaaaa

#3850000
0aaaaa

#3900000
1aaaaa

#3950000
0aaaaa

#4000000
1aaaaa
1aaaac

#4050000
0aaaaa

#4100000
1aaaaa
0aaaac

#4150000
0aaaaa

#4200000
1aaaaa

#4250000
0aaaaa

#4300000
1aaaaa

#4350000
0aaaaa

#4400000
1aaaaa

#4450000
0aaaaa

#4500000
1aaaaa

#4550000
0aaaaa

#4600000
1aaaaa
1aaaac
1aaaad

#4650000
0aaaaa

#4700000
1aaaaa
0aaaac
0aaaad

#4750000
0aaaaa

#4800000
1aaaaa

#4850000
0aaaaa

#4900000
1aaaaa
1aaaad

