SC_fifo_Comparison/ex_2a/main.vcd
$date
     Mar 30, 2024       15:51:39
$end

$version
 SystemC 2.3.3-Accellera --- Mar 25 2024 22:40:51
$end

$timescale
     1 ps
$end

$scope module SystemC $end
$var wire    1  aaaaa  clk       $end
$var wire    1  aaaab  empty       $end
$var wire    1  aaaac  consumer_fetch       $end
$var wire    1  aaaad  rd_en       $end
$var wire    1  aaaae  consumer_data_valid       $end
$var wire    8  aaaaf  consumer_d_in [7:0]  $end
$upscope $end
$enddefinitions  $end

$comment
All initial values are dumped below at time 0 sec = 0 timescale units.
$end

$dumpvars
1aaaaa
1aaaab
0aaaac
0aaaad
0aaaae
b11111111 aaaaf
$end

#50000
0aaaaa

#100000
1aaaaa

#150000
0aaaaa

#200000
1aaaaa

#250000
0aaaaa

#300000
1aaaaa

#350000
0aaaaa

#400000
1aaaaa
0aaaab

#450000
0aaaaa

#500000
1aaaaa
1aaaac
1aaaad

#550000
0aaaaa

#600000
1aaaaa
1aaaab
0aaaac
0aaaad
1aaaae
b0 aaaaf

#650000
0aaaaa

#700000
1aaaaa
0aaaab
0aaaae

#750000
0aaaaa

#800000
1aaaaa

#850000
0aaaaa

#900000
1aaaaa

#950000
0aaaaa

#1000000
1aaaaa

#1050000
0aaaaa

#1100000
1aaaaa
1aaaac
1aaaad

#1150000
0aaaaa

#1200000
1aaaaa
0aaaac
0aaaad
1aaaae
b1 aaaaf

#1250000
0aaaaa

#1300000
1aaaaa
0aaaae

#1350000
0aaaaa

#1400000
1aaaaa

#1450000
0aaaaa

#1500000
1aaaaa

#1550000
0aaaaa

#1600000
1aaaaa
1aaaac
1aaaad

#1650000
0aaaaa

#1700000
1aaaaa
0aaaac
0aaaad
1aaaae
b10 aaaaf

#1750000
0aaaaa

#1800000
1aaaaa
0aaaae

#1850000
0aaaaa

#1900000
1aaaaa

#1950000
0aaaaa

#2000000
1aaaaa
1aaaac
1aaaad

#2050000
0aaaaa

#2100000
1aaaaa
1aaaae
b11 aaaaf

#2150000
0aaaaa

#2200000
1aaaaa
0aaaac
0aaaad
b100 aaaaf

#2250000
0aaaaa

#2300000
1aaaaa
1aaaac
1aaaad
0aaaae

#2350000
0aaaaa

#2400000
1aaaaa
1aaaae
b101 aaaaf

#2450000
0aaaaa

#2500000
1aaaaa
b110 aaaaf

#2550000
0aaaaa

#2600000
1aaaaa
b111 aaaaf

#2650000
0aaaaa

#2700000
1aaaaa
b1000 aaaaf

#2750000
0aaaaa

#2800000
1aaaaa
b1001 aaaaf

#2850000
0aaaaa

#2900000
1aaaaa
1aaaab
b1010 aaaaf

#2950000
0aaaaa

#3000000
1aaaaa
0aaaae

#3050000
0aaaaa

#3100000
1aaaaa

#3150000
0aaaaa

#3200000
1aaaaa

#3250000
0aaaaa

#3300000
1aaaaa
0aaaac
0aaaad

#3350000
0aaaaa

#3400000
1aaaaa

#3450000
0aaaaa

#3500000
1aaaaa
1aaaac
1aaaad

#3550000
0aaaaa

#3600000
1aaaaa
0aaaac
0aaaad

#3650000
0aaaaa

#3700000
1aaaaa

#3750000
0aaaaa

#3800000
1aaaaa

#3850000
0aaaaa

#3900000
1aaaaa

#3950000
0aaaaa

#4000000
1aaaaa
1aaaac
1aaaad

#4050000
0aaaaa

#4100000
1aaaaa
0aaaac
0aaaad

#4150000
0aaaaa

#4200000
1aaaaa

#4250000
0aaaaa

#4300000
1aaaaa

#4350000
0aaaaa

#4400000
1aaaaa

#4450000
0aaaaa

#4500000
1aaaaa

#4550000
0aaaaa

#4600000
1aaaaa
1aaaac
1aaaad

#4650000
0aaaaa

#4700000
1aaaaa
0aaaab
0aaaac
0aaaad

